<svg xmlns="http://www.w3.org/2000/svg" width="199.969" height="199.812" viewBox="0 0 199.969 199.812">
  <metadata><?xpacket begin="﻿" id="W5M0MpCehiHzreSzNTczkc9d"?>
<x:xmpmeta xmlns:x="adobe:ns:meta/" x:xmptk="Adobe XMP Core 5.6-c140 79.160451, 2017/05/06-01:08:21        ">
   <rdf:RDF xmlns:rdf="http://www.w3.org/1999/02/22-rdf-syntax-ns#">
      <rdf:Description rdf:about=""/>
   </rdf:RDF>
</x:xmpmeta>
                                                                                                    
                                                                                                    
                                                                                                    
                                                                                                    
                                                                                                    
                                                                                                    
                                                                                                    
                                                                                                    
                                                                                                    
                                                                                                    
                                                                                                    
                                                                                                    
                                                                                                    
                                                                                                    
                                                                                                    
                                                                                                    
                                                                                                    
                                                                                                    
                                                                                                    
                                                                                                    
                           
<?xpacket end="w"?></metadata>
<defs>
    <style>
      .cls-1 {
        fill: #94aaba;
        fill-rule: evenodd;
      }
    </style>
  </defs>
  <path id="Эллипс_1" data-name="Эллипс 1" class="cls-1" d="M137.479,125.437C146.2,133.917,191.116,177.682,198,186c6.622,7.695-5.066,18.056-11.733,11.961a28.919,28.919,0,0,0-3.007-2.658l-58.19-57.281m0,0A76.348,76.348,0,0,1,77,155C34.474,155,0,120.3,0,77.5S34.474,0,77,0s77,34.7,77,77.5a77.46,77.46,0,0,1-16.521,47.937C129.457,133.641,125.07,138.022,125.07,138.022ZM77,18a59,59,0,1,0,59,59A59,59,0,0,0,77,18ZM73,45C46.487,47.973,45,77.989,45,82c-0.368,4.454-5,4-5,4s-2.931-.06-3-5c0.148-10.475,5.7-43.274,36-44a3.956,3.956,0,0,1,4,4C76.948,43.132,75.784,44.631,73,45ZM183.26,195.3L186,198S183.528,195.63,183.26,195.3Z"/>
</svg>
